<?xml version="1.0" encoding="utf-8"?>
<!-- Generator: Adobe Illustrator 24.1.3, SVG Export Plug-In . SVG Version: 6.00 Build 0)  -->
<svg version="1.1" id="Capa_1" xmlns="http://www.w3.org/2000/svg" xmlns:xlink="http://www.w3.org/1999/xlink" x="0px" y="0px"
	 viewBox="0 0 23 20.1" style="enable-background:new 0 0 23 20.1;" xml:space="preserve">
<style type="text/css">
	.st0{fill:#005FAB;}
</style>
<g id="Capa_2_1_">
	<g id="Capa_1-2">
		<g id="Grupo_43">
			<g id="Grupo_42-2">
				<g id="_12">
					<g>
						<path class="st0" d="M20.6,11.3L13.1,19c-0.4,0.4-1,0.7-1.6,0.7c-0.6,0-1.2-0.3-1.6-0.7l-7.5-7.7c-2.5-2.6-2.5-6.7,0.1-9.2
							C2.6,2,2.7,1.9,2.8,1.8C5.4-0.2,9.2,0,11.5,2.4c2.3-2.4,6.1-2.7,8.7-0.6c2.7,2.3,3.1,6.4,0.8,9.2
							C20.9,11.1,20.8,11.2,20.6,11.3z M18.9,3.4C17.1,2,14.5,2.2,13,3.9l-1.5,1.6L10,3.9C8.4,2.2,5.9,2,4.1,3.4
							C2.3,5,2,7.8,3.6,9.7c0.1,0.1,0.1,0.2,0.2,0.2l7.5,7.7c0.1,0.1,0.2,0.1,0.2,0.1c0,0,0,0,0.1-0.1l7.5-7.7
							c1.7-1.8,1.7-4.6-0.1-6.3C19,3.6,18.9,3.5,18.9,3.4z"/>
					</g>
				</g>
			</g>
		</g>
	</g>
</g>
</svg>
