<?xml version="1.0" encoding="utf-8"?>
<!-- Generator: Adobe Illustrator 24.1.3, SVG Export Plug-In . SVG Version: 6.00 Build 0)  -->
<svg version="1.1" id="Capa_1" xmlns="http://www.w3.org/2000/svg" xmlns:xlink="http://www.w3.org/1999/xlink" x="0px" y="0px"
	 viewBox="0 0 22 22" style="enable-background:new 0 0 22 22;" xml:space="preserve">
<style type="text/css">
	.st0{fill:#005EAA;}
</style>
<g id="Capa_2_1_">
	<g id="Capa_1-2">
		<g id="Grupo_43">
			<g id="Grupo_42-5">
				<g id="_14">
					<g>
						<path class="st0" d="M21.7,11c0,5.9-4.8,10.7-10.7,10.7C5.1,21.7,0.3,16.9,0.3,11C0.3,5.1,5.1,0.3,11,0.3c0,0,0,0,0,0
							C16.9,0.3,21.7,5.1,21.7,11C21.7,11,21.7,11,21.7,11z M19.6,11c0-4.7-3.8-8.6-8.6-8.6c-4.7,0-8.6,3.8-8.6,8.6
							c0,1.8,0.6,3.6,1.6,5c1.1-1.4,2.7-2.2,4.5-2.2c0.8,0.2,1.6,0.4,2.5,0.4c0.8-0.1,1.7-0.2,2.5-0.4c1.8,0,3.4,0.8,4.5,2.2
							C19,14.5,19.6,12.8,19.6,11z M16.6,17.5c-0.7-1-1.8-1.7-3-1.7c-0.8,0.3-1.7,0.4-2.6,0.4c-0.9,0-1.8-0.1-2.6-0.4
							c-1.2,0-2.3,0.7-3,1.7C8.6,20.3,13.4,20.3,16.6,17.5L16.6,17.5z M15.1,8.6c0,2.3-1.8,4.1-4.1,4.1c-2.3,0-4.1-1.8-4.1-4.1
							c0-2.3,1.8-4.1,4.1-4.1c0,0,0,0,0,0C13.3,4.5,15.1,6.3,15.1,8.6z M13.1,8.6c0-1.1-0.9-2.1-2.1-2.1S8.9,7.4,8.9,8.6
							c0,1.1,0.9,2.1,2.1,2.1c0,0,0,0,0,0C12.1,10.7,13.1,9.7,13.1,8.6z"/>
					</g>
				</g>
			</g>
		</g>
	</g>
</g>
</svg>
